…
Here is an example of some code that runs but may not be doing what we want. What are some differences in this code?

df %>%
  group_by(cyl) %>%
  mutate(new_mpg = mean(mpg, na.rm=TRUE)) %>%
  select(mpg,new_mpg)

## Adding missing grouping variables: `cyl`

## # A tibble: 32 x 3
## # Groups:   cyl [3]
##      cyl   mpg new_mpg
##    <dbl> <dbl>   <dbl>
##  1     6  21      19.7
##  2     6  21      19.7
##  3     4  22.8    26.7
##  4     6  21.4    19.7
##  5     8  18.7    15.1
##  6     6  18.1    19.7
##  7     8  14.3    15.1
##  8     4  24.4    26.7
##  9     4  22.8    26.7
## 10     6  19.2    19.7
## # … with 22 more rows
…
